{
  "inEmailAddress": "paymentcenter@yoomoney.ru",
  "inSubjectPrefix": "YooMoney payment",
  "outSubject": "Благодарим за покупку",
  "projectWord": "_pro-sd/pro-sd-course_personal-pro-sd-course_milestone-0_",
  "keys": {
    "Идентификатор клиента": "userId",
    "Ф.И.О.": "userName",
    "order-details": "orderDetails"
  },
  "templateIds": {
    "book": "ec773863-fe82-4de2-be5c-a4c1c37f6b54",
    "course": "ff1cf61a-32b4-4607-84e8-2c7f0151c116"
  }
}